%YAML 1.1
%TAG !u! tag:unity3d.com,2011:
--- !u!78 &1
TagManager:
  serializedVersion: 2
  tags:
  - PlayerHand
  - Celestial
  - Joystick
  - Ship
  layers:
  - Default
  - TransparentFX
  - Ignore Raycast
  - Glow
  - Water
  - UI
  - Player
  - Enemy
  - Radar
  - 
  - 
  - 
  - 
  - 
  - 
  - 
  - 
  - 
  - 
  - 
  - 
  - 
  - 
  - 
  - 
  - 
  - 
  - 
  - 
  - HandPlayer
  - Grabbable
  - Grabbing
  m_SortingLayers:
  - name: Default
    uniqueID: 0
    locked: 0
